{
  "name": "DriverMaster",
  "fields": [
    {
      "fieldName": "driverName",
      "fieldType": "String"
    },
    {
      "fieldName": "currentLatitude",
      "fieldType": "String"
    },
    {
      "fieldName": "currentLongitude",
      "fieldType": "String"
    },
    {
      "fieldName": "status",
      "fieldType": "String"
    },
    {
      "fieldName": "updatedOn",
      "fieldType": "Instant"
    }
  ],
  "relationships": [],
  "changelogDate": "20201011163839",
  "entityTableName": "driver_master",
  "dto": "mapstruct",
  "pagination": "pagination",
  "service": "serviceImpl",
  "jpaMetamodelFiltering": false,
  "fluentMethods": true,
  "readOnly": false,
  "embedded": false,
  "clientRootFolder": "LogiNextProgrammingChallenge",
  "applications": "*",
  "microserviceName": "LogiNextProgrammingChallenge"
}
